                                      1 ;--------------------------------------------------------
                                      2 ; File Created by SDCC : free open source ANSI-C Compiler
                                      3 ; Version 3.6.5 #9860 (MINGW64)
                                      4 ;--------------------------------------------------------
                                      5 	.module interrupts
                                      6 	.optsdcc -mstm8
                                      7 	
                                      8 ;--------------------------------------------------------
                                      9 ; Public variables in this module
                                     10 ;--------------------------------------------------------
                                     11 	.globl _isr_TLI
                                     12 	.globl _isr_AWU
                                     13 	.globl _isr_CLK
                                     14 	.globl _isr_EXTI0
                                     15 	.globl _isr_EXTI1
                                     16 	.globl _isr_EXTI2
                                     17 	.globl _isr_EXTI3
                                     18 	.globl _isr_EXTI4
                                     19 	.globl _isr_SPI
                                     20 	.globl _isr_TIM1_update
                                     21 	.globl _isr_TIM1_capture
                                     22 	.globl _isr_TIM2_update
                                     23 	.globl _isr_TIM2_capture
                                     24 	.globl _isr_UART1_tx
                                     25 	.globl _isr_UART1_rx
                                     26 	.globl _isr_I2C
                                     27 	.globl _isr_ADC1
                                     28 	.globl _isr_TIM4
                                     29 	.globl _isr_FLASH
                                     30 ;--------------------------------------------------------
                                     31 ; ram data
                                     32 ;--------------------------------------------------------
                                     33 	.area DATA
                                     34 ;--------------------------------------------------------
                                     35 ; ram data
                                     36 ;--------------------------------------------------------
                                     37 	.area INITIALIZED
                                     38 ;--------------------------------------------------------
                                     39 ; absolute external ram data
                                     40 ;--------------------------------------------------------
                                     41 	.area DABS (ABS)
                                     42 ;--------------------------------------------------------
                                     43 ; global & static initialisations
                                     44 ;--------------------------------------------------------
                                     45 	.area HOME
                                     46 	.area GSINIT
                                     47 	.area GSFINAL
                                     48 	.area GSINIT
                                     49 ;--------------------------------------------------------
                                     50 ; Home
                                     51 ;--------------------------------------------------------
                                     52 	.area HOME
                                     53 	.area HOME
                                     54 ;--------------------------------------------------------
                                     55 ; code
                                     56 ;--------------------------------------------------------
                                     57 	.area CODE
                                     58 ;	source/interrupts.c: 9: void isr_TLI(void) 	__interrupt (0)		/* $8008 0 TLI External top level interrupt */	{ }
                                     59 ;	-----------------------------------------
                                     60 ;	 function isr_TLI
                                     61 ;	-----------------------------------------
      000000                         62 _isr_TLI:
      000000 80               [11]   63 	iret
                                     64 ;	source/interrupts.c: 10: void isr_AWU(void) 	__interrupt (1) 	/* $800C 1 AWU Auto wake up from halt */	{ }
                                     65 ;	-----------------------------------------
                                     66 ;	 function isr_AWU
                                     67 ;	-----------------------------------------
      000001                         68 _isr_AWU:
      000001 80               [11]   69 	iret
                                     70 ;	source/interrupts.c: 11: void isr_CLK(void) 	__interrupt (2) 	/* $8010 2 CLK Clock controller */		{ }
                                     71 ;	-----------------------------------------
                                     72 ;	 function isr_CLK
                                     73 ;	-----------------------------------------
      000002                         74 _isr_CLK:
      000002 80               [11]   75 	iret
                                     76 ;	source/interrupts.c: 12: void isr_EXTI0(void) 	__interrupt (3) 	/* $8014 3 EXTI0 Port A external interrupts */	{ }
                                     77 ;	-----------------------------------------
                                     78 ;	 function isr_EXTI0
                                     79 ;	-----------------------------------------
      000003                         80 _isr_EXTI0:
      000003 80               [11]   81 	iret
                                     82 ;	source/interrupts.c: 13: void isr_EXTI1(void) 	__interrupt (4) 	/* $8018 4 EXTI1 Port B external interrupts */	{ }
                                     83 ;	-----------------------------------------
                                     84 ;	 function isr_EXTI1
                                     85 ;	-----------------------------------------
      000004                         86 _isr_EXTI1:
      000004 80               [11]   87 	iret
                                     88 ;	source/interrupts.c: 14: void isr_EXTI2(void) 	__interrupt (5) 	/* $801C 5 EXTI2 Port C external interrupts */	{ }
                                     89 ;	-----------------------------------------
                                     90 ;	 function isr_EXTI2
                                     91 ;	-----------------------------------------
      000005                         92 _isr_EXTI2:
      000005 80               [11]   93 	iret
                                     94 ;	source/interrupts.c: 15: void isr_EXTI3(void) 	__interrupt (6) 	/* $8020 6 EXTI3 Port D external interrupts */	{ }
                                     95 ;	-----------------------------------------
                                     96 ;	 function isr_EXTI3
                                     97 ;	-----------------------------------------
      000006                         98 _isr_EXTI3:
      000006 80               [11]   99 	iret
                                    100 ;	source/interrupts.c: 16: void isr_EXTI4(void) 	__interrupt (7) 	/* $8024 7 EXTI4 Port E external interrupts */	{ }
                                    101 ;	-----------------------------------------
                                    102 ;	 function isr_EXTI4
                                    103 ;	-----------------------------------------
      000007                        104 _isr_EXTI4:
      000007 80               [11]  105 	iret
                                    106 ;	source/interrupts.c: 19: void isr_SPI(void) 		__interrupt (10) /* $8030 10 SPI End of transfer */ 		{ }
                                    107 ;	-----------------------------------------
                                    108 ;	 function isr_SPI
                                    109 ;	-----------------------------------------
      000008                        110 _isr_SPI:
      000008 80               [11]  111 	iret
                                    112 ;	source/interrupts.c: 20: void isr_TIM1_update(void)	__interrupt (11) /* $8034 11 TIM1 TIM1 update/overflow/underflow/trigger/break */ { }
                                    113 ;	-----------------------------------------
                                    114 ;	 function isr_TIM1_update
                                    115 ;	-----------------------------------------
      000009                        116 _isr_TIM1_update:
      000009 80               [11]  117 	iret
                                    118 ;	source/interrupts.c: 21: void isr_TIM1_capture(void)	__interrupt (12) /* $8038 12 TIM1 TIM1 capture/compare */ 	{ }
                                    119 ;	-----------------------------------------
                                    120 ;	 function isr_TIM1_capture
                                    121 ;	-----------------------------------------
      00000A                        122 _isr_TIM1_capture:
      00000A 80               [11]  123 	iret
                                    124 ;	source/interrupts.c: 22: void isr_TIM2_update(void) 	__interrupt (13) /* $803C 13 TIM2 TIM2 update/overflow */ 	{ }
                                    125 ;	-----------------------------------------
                                    126 ;	 function isr_TIM2_update
                                    127 ;	-----------------------------------------
      00000B                        128 _isr_TIM2_update:
      00000B 80               [11]  129 	iret
                                    130 ;	source/interrupts.c: 23: void isr_TIM2_capture(void) 	__interrupt (14) /* $8040 14 TIM2 TIM2 capture/compare */ 	{ }
                                    131 ;	-----------------------------------------
                                    132 ;	 function isr_TIM2_capture
                                    133 ;	-----------------------------------------
      00000C                        134 _isr_TIM2_capture:
      00000C 80               [11]  135 	iret
                                    136 ;	source/interrupts.c: 26: void isr_UART1_tx(void)	__interrupt (17) 	/* $804C 17 UART1 Tx complete */ 		{ }
                                    137 ;	-----------------------------------------
                                    138 ;	 function isr_UART1_tx
                                    139 ;	-----------------------------------------
      00000D                        140 _isr_UART1_tx:
      00000D 80               [11]  141 	iret
                                    142 ;	source/interrupts.c: 27: void isr_UART1_rx(void)	__interrupt (18) 	/* $8050 18 UART1 Receive register DATA FULL */ { }
                                    143 ;	-----------------------------------------
                                    144 ;	 function isr_UART1_rx
                                    145 ;	-----------------------------------------
      00000E                        146 _isr_UART1_rx:
      00000E 80               [11]  147 	iret
                                    148 ;	source/interrupts.c: 28: void isr_I2C(void) 	__interrupt (19) 	/* $8054 19 I2C I2C interrupt */ 		{ }
                                    149 ;	-----------------------------------------
                                    150 ;	 function isr_I2C
                                    151 ;	-----------------------------------------
      00000F                        152 _isr_I2C:
      00000F 80               [11]  153 	iret
                                    154 ;	source/interrupts.c: 31: void isr_ADC1(void) 	__interrupt (22) 	/* $8060 22 ADC1 end of conversion/analog watchdog interrupt */ { }
                                    155 ;	-----------------------------------------
                                    156 ;	 function isr_ADC1
                                    157 ;	-----------------------------------------
      000010                        158 _isr_ADC1:
      000010 80               [11]  159 	iret
                                    160 ;	source/interrupts.c: 32: void isr_TIM4(void) 	__interrupt (23) 	/* $8064 23 TIM4 update/overflow */ 		{ }
                                    161 ;	-----------------------------------------
                                    162 ;	 function isr_TIM4
                                    163 ;	-----------------------------------------
      000011                        164 _isr_TIM4:
      000011 80               [11]  165 	iret
                                    166 ;	source/interrupts.c: 33: void isr_FLASH(void) 	__interrupt (24) 	/* $8068 24 Flash EOP/WR_PG_DIS */ 		{ }
                                    167 ;	-----------------------------------------
                                    168 ;	 function isr_FLASH
                                    169 ;	-----------------------------------------
      000012                        170 _isr_FLASH:
      000012 80               [11]  171 	iret
                                    172 	.area CODE
                                    173 	.area INITIALIZER
                                    174 	.area CABS (ABS)
